dump.vcd
$version Generated by VerilatedVcd $end
$timescale 1ps $end
 $scope module $rootio $end
 $upscope $end
 $scope module riscv_pkg $end
  $var wire 32 m XLEN [31:0] $end
  $var wire 32 n PLEN [31:0] $end
  $var wire 7 o OpcodeLoad [6:0] $end
  $var wire 7 p OpcodeLoadFp [6:0] $end
  $var wire 7 q OpcodeCustom0 [6:0] $end
  $var wire 7 r OpcodeMiscMem [6:0] $end
  $var wire 7 s OpcodeOpImm [6:0] $end
  $var wire 7 t OpcodeAuipc [6:0] $end
  $var wire 7 u OpcodeOpImm32 [6:0] $end
  $var wire 7 v OpcodeStore [6:0] $end
  $var wire 7 w OpcodeStoreFp [6:0] $end
  $var wire 7 x OpcodeCustom1 [6:0] $end
  $var wire 7 y OpcodeAmo [6:0] $end
  $var wire 7 z OpcodeOp [6:0] $end
  $var wire 7 { OpcodeLui [6:0] $end
  $var wire 7 | OpcodeOp32 [6:0] $end
  $var wire 7 } OpcodeMadd [6:0] $end
  $var wire 7 ~ OpcodeMsub [6:0] $end
  $var wire 7 !! OpcodeNmsub [6:0] $end
  $var wire 7 "! OpcodeNmadd [6:0] $end
  $var wire 7 #! OpcodeOpFp [6:0] $end
  $var wire 7 $! OpcodeVec [6:0] $end
  $var wire 7 %! OpcodeCustom2 [6:0] $end
  $var wire 7 &! OpcodeBranch [6:0] $end
  $var wire 7 '! OpcodeJalr [6:0] $end
  $var wire 7 (! OpcodeRsrvd2 [6:0] $end
  $var wire 7 )! OpcodeJal [6:0] $end
  $var wire 7 *! OpcodeSystem [6:0] $end
  $var wire 7 +! OpcodeRsrvd3 [6:0] $end
  $var wire 7 ,! OpcodeCustom3 [6:0] $end
  $var wire 2 -! OpcodeC0 [1:0] $end
  $var wire 3 .! OpcodeC0Addi4spn [2:0] $end
  $var wire 3 /! OpcodeC0Fld [2:0] $end
  $var wire 3 0! OpcodeC0Lw [2:0] $end
  $var wire 3 1! OpcodeC0Ld [2:0] $end
  $var wire 3 2! OpcodeC0Zcb [2:0] $end
  $var wire 3 3! OpcodeC0Fsd [2:0] $end
  $var wire 3 4! OpcodeC0Sw [2:0] $end
  $var wire 3 5! OpcodeC0Sd [2:0] $end
  $var wire 2 6! OpcodeC1 [1:0] $end
  $var wire 3 .! OpcodeC1Addi [2:0] $end
  $var wire 3 /! OpcodeC1Addiw [2:0] $end
  $var wire 3 /! OpcodeC1Jal [2:0] $end
  $var wire 3 0! OpcodeC1Li [2:0] $end
  $var wire 3 1! OpcodeC1LuiAddi16sp [2:0] $end
  $var wire 3 2! OpcodeC1MiscAlu [2:0] $end
  $var wire 3 3! OpcodeC1J [2:0] $end
  $var wire 3 4! OpcodeC1Beqz [2:0] $end
  $var wire 3 5! OpcodeC1Bnez [2:0] $end
  $var wire 2 7! OpcodeC2 [1:0] $end
  $var wire 3 .! OpcodeC2Slli [2:0] $end
  $var wire 3 /! OpcodeC2Fldsp [2:0] $end
  $var wire 3 0! OpcodeC2Lwsp [2:0] $end
  $var wire 3 1! OpcodeC2Ldsp [2:0] $end
  $var wire 3 2! OpcodeC2JalrMvAdd [2:0] $end
  $var wire 3 3! OpcodeC2Fsdsp [2:0] $end
  $var wire 3 4! OpcodeC2Swsp [2:0] $end
  $var wire 3 5! OpcodeC2Sdsp [2:0] $end
  $var wire 32 8! INSTR_ADDR_MISALIGNED [31:0] $end
  $var wire 32 9! INSTR_ACCESS_FAULT [31:0] $end
  $var wire 32 :! ILLEGAL_INSTR [31:0] $end
  $var wire 32 ;! BREAKPOINT [31:0] $end
  $var wire 32 <! LD_ADDR_MISALIGNED [31:0] $end
  $var wire 32 =! LD_ACCESS_FAULT [31:0] $end
  $var wire 32 >! ST_ADDR_MISALIGNED [31:0] $end
  $var wire 32 ?! ST_ACCESS_FAULT [31:0] $end
  $var wire 32 @! ENV_CALL_UMODE [31:0] $end
  $var wire 32 A! ENV_CALL_SMODE [31:0] $end
  $var wire 32 B! ENV_CALL_VSMODE [31:0] $end
  $var wire 32 C! ENV_CALL_MMODE [31:0] $end
  $var wire 32 D! INSTR_PAGE_FAULT [31:0] $end
  $var wire 32 E! LOAD_PAGE_FAULT [31:0] $end
  $var wire 32 F! STORE_PAGE_FAULT [31:0] $end
  $var wire 32 G! INSTR_GUEST_PAGE_FAULT [31:0] $end
  $var wire 32 H! LOAD_GUEST_PAGE_FAULT [31:0] $end
  $var wire 32 I! VIRTUAL_INSTRUCTION [31:0] $end
  $var wire 32 J! STORE_GUEST_PAGE_FAULT [31:0] $end
  $var wire 32 K! DEBUG_REQUEST [31:0] $end
  $var wire 32 L! IRQ_S_SOFT [31:0] $end
  $var wire 32 M! IRQ_VS_SOFT [31:0] $end
  $var wire 32 N! IRQ_M_SOFT [31:0] $end
  $var wire 32 O! IRQ_S_TIMER [31:0] $end
  $var wire 32 P! IRQ_VS_TIMER [31:0] $end
  $var wire 32 Q! IRQ_M_TIMER [31:0] $end
  $var wire 32 R! IRQ_S_EXT [31:0] $end
  $var wire 32 S! IRQ_VS_EXT [31:0] $end
  $var wire 32 T! IRQ_M_EXT [31:0] $end
  $var wire 32 U! IRQ_HS_EXT [31:0] $end
  $var wire 32 :! MIP_SSIP [31:0] $end
  $var wire 32 <! MIP_VSSIP [31:0] $end
  $var wire 32 @! MIP_MSIP [31:0] $end
  $var wire 32 V! MIP_STIP [31:0] $end
  $var wire 32 W! MIP_VSTIP [31:0] $end
  $var wire 32 X! MIP_MTIP [31:0] $end
  $var wire 32 Y! MIP_SEIP [31:0] $end
  $var wire 32 Z! MIP_VSEIP [31:0] $end
  $var wire 32 [! MIP_MEIP [31:0] $end
  $var wire 32 \! MIP_SGEIP [31:0] $end
  $var wire 32 ]! READ_32_PSEUDOINSTRUCTION [31:0] $end
  $var wire 32 ^! WRITE_32_PSEUDOINSTRUCTION [31:0] $end
  $var wire 32 _! READ_64_PSEUDOINSTRUCTION [31:0] $end
  $var wire 32 `! WRITE_64_PSEUDOINSTRUCTION [31:0] $end
  $var wire 64 a! SSTATUS_UIE [63:0] $end
  $var wire 64 c! SSTATUS_SIE [63:0] $end
  $var wire 64 e! SSTATUS_SPIE [63:0] $end
  $var wire 64 g! SSTATUS_SPP [63:0] $end
  $var wire 64 i! SSTATUS_FS [63:0] $end
  $var wire 64 k! SSTATUS_XS [63:0] $end
  $var wire 64 m! SSTATUS_SUM [63:0] $end
  $var wire 64 o! SSTATUS_MXR [63:0] $end
  $var wire 64 q! SSTATUS_UPIE [63:0] $end
  $var wire 64 s! SSTATUS_UXL [63:0] $end
  $var wire 64 e! HSTATUS_VSBE [63:0] $end
  $var wire 64 u! HSTATUS_GVA [63:0] $end
  $var wire 64 w! HSTATUS_SPV [63:0] $end
  $var wire 64 g! HSTATUS_SPVP [63:0] $end
  $var wire 64 y! HSTATUS_HU [63:0] $end
  $var wire 64 {! HSTATUS_VGEIN [63:0] $end
  $var wire 64 }! HSTATUS_VTVM [63:0] $end
  $var wire 64 !" HSTATUS_VTW [63:0] $end
  $var wire 64 #" HSTATUS_VTSR [63:0] $end
  $var wire 64 s! HSTATUS_VSXL [63:0] $end
  $var wire 64 a! MSTATUS_UIE [63:0] $end
  $var wire 64 c! MSTATUS_SIE [63:0] $end
  $var wire 64 %" MSTATUS_HIE [63:0] $end
  $var wire 64 '" MSTATUS_MIE [63:0] $end
  $var wire 64 q! MSTATUS_UPIE [63:0] $end
  $var wire 64 e! MSTATUS_SPIE [63:0] $end
  $var wire 64 u! MSTATUS_HPIE [63:0] $end
  $var wire 64 w! MSTATUS_MPIE [63:0] $end
  $var wire 64 g! MSTATUS_SPP [63:0] $end
  $var wire 64 )" MSTATUS_HPP [63:0] $end
  $var wire 64 +" MSTATUS_MPP [63:0] $end
  $var wire 64 i! MSTATUS_FS [63:0] $end
  $var wire 64 k! MSTATUS_XS [63:0] $end
  $var wire 64 -" MSTATUS_MPRV [63:0] $end
  $var wire 64 m! MSTATUS_SUM [63:0] $end
  $var wire 64 o! MSTATUS_MXR [63:0] $end
  $var wire 64 }! MSTATUS_TVM [63:0] $end
  $var wire 64 !" MSTATUS_TW [63:0] $end
  $var wire 64 #" MSTATUS_TSR [63:0] $end
  $var wire 64 a! MENVCFG_FIOM [63:0] $end
  $var wire 64 /" MENVCFG_CBIE [63:0] $end
  $var wire 64 u! MENVCFG_CBFE [63:0] $end
  $var wire 64 w! MENVCFG_CBZE [63:0] $end
  $var wire 64 1" MENVCFG_PBMTE [63:0] $end
  $var wire 64 3" MENVCFG_STCE [63:0] $end
  $var wire 3 .! F3_BEQ [2:0] $end
  $var wire 3 /! F3_BNE [2:0] $end
  $var wire 3 2! F3_BLT [2:0] $end
  $var wire 3 3! F3_BGE [2:0] $end
  $var wire 3 4! F3_BLTU [2:0] $end
  $var wire 3 5! F3_BGEU [2:0] $end
  $var wire 3 .! F3_LB [2:0] $end
  $var wire 3 /! F3_LH [2:0] $end
  $var wire 3 0! F3_LW [2:0] $end
  $var wire 3 2! F3_LBU [2:0] $end
  $var wire 3 3! F3_LHU [2:0] $end
  $var wire 3 .! F3_SB [2:0] $end
  $var wire 3 /! F3_SH [2:0] $end
  $var wire 3 0! F3_SW [2:0] $end
  $var wire 3 .! F3_ADDI [2:0] $end
  $var wire 3 0! F3_SLTI [2:0] $end
  $var wire 3 1! F3_SLTIU [2:0] $end
  $var wire 3 2! F3_XORI [2:0] $end
  $var wire 3 4! F3_ORI [2:0] $end
  $var wire 3 5! F3_ANDI [2:0] $end
  $var wire 3 /! F3_SLLI [2:0] $end
  $var wire 3 3! F3_SRLI [2:0] $end
  $var wire 3 3! F3_SRAI [2:0] $end
  $var wire 3 .! F3_JALR [2:0] $end
  $var wire 7 5" F7_SLLI [6:0] $end
  $var wire 7 5" F7_SRLI [6:0] $end
  $var wire 7 6" F7_SRAI [6:0] $end
  $var wire 3 .! F3_ADD [2:0] $end
  $var wire 3 .! F3_SUB [2:0] $end
  $var wire 3 /! F3_SLL [2:0] $end
  $var wire 3 0! F3_SLT [2:0] $end
  $var wire 3 1! F3_SLTU [2:0] $end
  $var wire 3 2! F3_XOR [2:0] $end
  $var wire 3 3! F3_SRL [2:0] $end
  $var wire 3 3! F3_SRA [2:0] $end
  $var wire 3 4! F3_OR [2:0] $end
  $var wire 3 5! F3_AND [2:0] $end
  $var wire 7 5" F7_ADD [6:0] $end
  $var wire 7 6" F7_SUB [6:0] $end
  $var wire 7 5" F7_SLL [6:0] $end
  $var wire 7 5" F7_SLT [6:0] $end
  $var wire 7 5" F7_SLTU [6:0] $end
  $var wire 7 5" F7_XOR [6:0] $end
  $var wire 7 5" F7_SRL [6:0] $end
  $var wire 7 6" F7_SRA [6:0] $end
  $var wire 7 5" F7_OR [6:0] $end
  $var wire 7 5" F7_AND [6:0] $end
 $upscope $end
 $scope module tb $end
  $var wire 32 ` addr [31:0] $end
  $var wire 32 a data [31:0] $end
  $var wire 32 # pc [31:0] $end
  $var wire 32 b instr [31:0] $end
  $var wire 5 c reg_addr [4:0] $end
  $var wire 32 $ reg_data [31:0] $end
  $var wire 32 % mem_addr [31:0] $end
  $var wire 32 & mem_data [31:0] $end
  $var wire 1 ' update $end
  $var wire 1 d clk $end
  $var wire 1 e rstn $end
  $var wire 32 f file_pointer [31:0] $end
  $scope module i_core_model $end
   $var wire 64 h DMemInitFile [63:0] $end
   $var wire 64 j IMemInitFile [63:0] $end
   $var wire 1 d clk_i $end
   $var wire 1 e rstn_i $end
   $var wire 32 ` addr_i [31:0] $end
   $var wire 1 ' update_o $end
   $var wire 32 a data_o [31:0] $end
   $var wire 32 # pc_o [31:0] $end
   $var wire 32 b instr_o [31:0] $end
   $var wire 5 c reg_addr_o [4:0] $end
   $var wire 32 $ reg_data_o [31:0] $end
   $var wire 32 % mem_addr_o [31:0] $end
   $var wire 32 & mem_data_o [31:0] $end
   $var wire 32 ( pc_next [31:0] $end
   $var wire 32 # pc_excte [31:0] $end
   $var wire 32 ) jump_pc [31:0] $end
   $var wire 1 * jump_ok $end
   $var wire 32 + instr [31:0] $end
   $var wire 32 , reg_file[0] [31:0] $end
   $var wire 32 - reg_file[1] [31:0] $end
   $var wire 32 . reg_file[2] [31:0] $end
   $var wire 32 / reg_file[3] [31:0] $end
   $var wire 32 0 reg_file[4] [31:0] $end
   $var wire 32 1 reg_file[5] [31:0] $end
   $var wire 32 2 reg_file[6] [31:0] $end
   $var wire 32 3 reg_file[7] [31:0] $end
   $var wire 32 4 reg_file[8] [31:0] $end
   $var wire 32 5 reg_file[9] [31:0] $end
   $var wire 32 6 reg_file[10] [31:0] $end
   $var wire 32 7 reg_file[11] [31:0] $end
   $var wire 32 8 reg_file[12] [31:0] $end
   $var wire 32 9 reg_file[13] [31:0] $end
   $var wire 32 : reg_file[14] [31:0] $end
   $var wire 32 ; reg_file[15] [31:0] $end
   $var wire 32 < reg_file[16] [31:0] $end
   $var wire 32 = reg_file[17] [31:0] $end
   $var wire 32 > reg_file[18] [31:0] $end
   $var wire 32 ? reg_file[19] [31:0] $end
   $var wire 32 @ reg_file[20] [31:0] $end
   $var wire 32 A reg_file[21] [31:0] $end
   $var wire 32 B reg_file[22] [31:0] $end
   $var wire 32 C reg_file[23] [31:0] $end
   $var wire 32 D reg_file[24] [31:0] $end
   $var wire 32 E reg_file[25] [31:0] $end
   $var wire 32 F reg_file[26] [31:0] $end
   $var wire 32 G reg_file[27] [31:0] $end
   $var wire 32 H reg_file[28] [31:0] $end
   $var wire 32 I reg_file[29] [31:0] $end
   $var wire 32 J reg_file[30] [31:0] $end
   $var wire 32 K reg_file[31] [31:0] $end
   $var wire 32 L rs1 [31:0] $end
   $var wire 32 M rs2 [31:0] $end
   $var wire 32 N instr_mem_data [31:0] $end
   $var wire 5 O shamt [4:0] $end
   $var wire 32 $ reg_data [31:0] $end
   $var wire 32 l reg_data_adres [31:0] $end
   $var wire 1 P reg_file_en $end
   $var wire 32 & mem_data [31:0] $end
   $var wire 32 Q mem_adres [31:0] $end
   $var wire 1 R mem_en $end
   $var wire 5 S sel [4:0] $end
   $var wire 32 T alu_out [31:0] $end
   $var wire 32 U number1 [31:0] $end
   $var wire 32 V number2 [31:0] $end
   $var wire 5 W shamt_data [4:0] $end
   $scope module alu_inst $end
    $var wire 32 U number1 [31:0] $end
    $var wire 32 V number2 [31:0] $end
    $var wire 5 W shamt_data [4:0] $end
    $var wire 5 S sel [4:0] $end
    $var wire 32 T alu_out [31:0] $end
    $var wire 5 X result [4:0] $end
    $var wire 32 Y i [31:0] $end
    $var wire 16 Z val16 [15:0] $end
    $var wire 8 [ val8 [7:0] $end
    $var wire 4 \ val4 [3:0] $end
    $var wire 2 ] val2 [1:0] $end
   $upscope $end
   $scope module dec_inst $end
    $var wire 32 , reg_file[0] [31:0] $end
    $var wire 32 - reg_file[1] [31:0] $end
    $var wire 32 . reg_file[2] [31:0] $end
    $var wire 32 / reg_file[3] [31:0] $end
    $var wire 32 0 reg_file[4] [31:0] $end
    $var wire 32 1 reg_file[5] [31:0] $end
    $var wire 32 2 reg_file[6] [31:0] $end
    $var wire 32 3 reg_file[7] [31:0] $end
    $var wire 32 4 reg_file[8] [31:0] $end
    $var wire 32 5 reg_file[9] [31:0] $end
    $var wire 32 6 reg_file[10] [31:0] $end
    $var wire 32 7 reg_file[11] [31:0] $end
    $var wire 32 8 reg_file[12] [31:0] $end
    $var wire 32 9 reg_file[13] [31:0] $end
    $var wire 32 : reg_file[14] [31:0] $end
    $var wire 32 ; reg_file[15] [31:0] $end
    $var wire 32 < reg_file[16] [31:0] $end
    $var wire 32 = reg_file[17] [31:0] $end
    $var wire 32 > reg_file[18] [31:0] $end
    $var wire 32 ? reg_file[19] [31:0] $end
    $var wire 32 @ reg_file[20] [31:0] $end
    $var wire 32 A reg_file[21] [31:0] $end
    $var wire 32 B reg_file[22] [31:0] $end
    $var wire 32 C reg_file[23] [31:0] $end
    $var wire 32 D reg_file[24] [31:0] $end
    $var wire 32 E reg_file[25] [31:0] $end
    $var wire 32 F reg_file[26] [31:0] $end
    $var wire 32 G reg_file[27] [31:0] $end
    $var wire 32 H reg_file[28] [31:0] $end
    $var wire 32 I reg_file[29] [31:0] $end
    $var wire 32 J reg_file[30] [31:0] $end
    $var wire 32 K reg_file[31] [31:0] $end
    $var wire 32 + instr [31:0] $end
    $var wire 32 L rs1 [31:0] $end
    $var wire 32 M rs2 [31:0] $end
    $var wire 5 O shamt [4:0] $end
    $var wire 32 N instr_mem_data [31:0] $end
   $upscope $end
   $scope module execute_inst $end
    $var wire 32 + instr [31:0] $end
    $var wire 32 L rs1 [31:0] $end
    $var wire 32 M rs2 [31:0] $end
    $var wire 32 N instr_mem_data [31:0] $end
    $var wire 5 O shamt [4:0] $end
    $var wire 32 # pc_excte [31:0] $end
    $var wire 1 * jump_ok $end
    $var wire 32 U number1 [31:0] $end
    $var wire 32 V number2 [31:0] $end
    $var wire 5 W shamt_data [4:0] $end
    $var wire 5 S sel [4:0] $end
    $var wire 32 & mem_data [31:0] $end
    $var wire 1 P reg_file_en $end
    $var wire 1 R mem_en $end
   $upscope $end
   $scope module unnamedblk1 $end
    $var wire 32 ^ i [31:0] $end
   $upscope $end
   $scope module unnamedblk2 $end
    $var wire 32 _ i [31:0] $end
   $upscope $end
  $upscope $end
  $scope module unnamedblk1 $end
   $var wire 32 g i [31:0] $end
  $upscope $end
 $upscope $end
$enddefinitions $end


#0
b00000000000000000000000000000000 #
b11111111111111111111110011000111 $
b00000000000000000000000000000000 %
b00000000000000000000000000000000 &
0'
b00000000000000000000000000000100 (
b00000000000000000000000000000000 )
0*
b11001100011100101000000000010011 +
b00000000000000000000000000000000 ,
b00000000000000000000000000000000 -
b00000000000000000000000000000000 .
b00000000000000000000000000000000 /
b00000000000000000000000000000000 0
b00000000000000000000000000000000 1
b00000000000000000000000000000000 2
b00000000000000000000000000000000 3
b00000000000000000000000000000000 4
b00000000000000000000000000000000 5
b00000000000000000000000000000000 6
b00000000000000000000000000000000 7
b00000000000000000000000000000000 8
b00000000000000000000000000000000 9
b00000000000000000000000000000000 :
b00000000000000000000000000000000 ;
b00000000000000000000000000000000 <
b00000000000000000000000000000000 =
b00000000000000000000000000000000 >
b00000000000000000000000000000000 ?
b00000000000000000000000000000000 @
b00000000000000000000000000000000 A
b00000000000000000000000000000000 B
b00000000000000000000000000000000 C
b00000000000000000000000000000000 D
b00000000000000000000000000000000 E
b00000000000000000000000000000000 F
b00000000000000000000000000000000 G
b00000000000000000000000000000000 H
b00000000000000000000000000000000 I
b00000000000000000000000000000000 J
b00000000000000000000000000000000 K
b00000000000000000000000000000000 L
b00000000000000000000000000000000 M
b11111111111111111111110011000111 N
b00000 O
1P
b00000000000000000000000000000000 Q
0R
b00000 S
b11111111111111111111110011000111 T
b11111111111111111111110011000111 U
b00000000000000000000000000000000 V
b00000 W
b00000 X
b00000000000000000000000000000000 Y
b0000000000000000 Z
b00000000 [
b0000 \
b00 ]
b00000000000000000000000000000000 ^
b00000000000000000000000000000000 _
b00000000000000000000000000000000 `
b00000000000000000000000000000000 a
b11001100011100101000000000010011 b
b00000 c
0d
0e
b10000000000000000000000000101100 f
b00000000000000000000000000000000 g
b0110010001101101011001010110110100101110011011010110010101101101 h
b0110100101101101011001010110110100101110011011010110010101101101 j
b00000000000000000000000000000000 l
b00000000000000000000000000100000 m
b00000000000000000000000000100010 n
b0000011 o
b0000111 p
b0001011 q
b0001111 r
b0010011 s
b0010111 t
b0011011 u
b0100011 v
b0100111 w
b0101011 x
b0101111 y
b0110011 z
b0110111 {
b0111011 |
b1000011 }
b1000111 ~
b1001011 !!
b1001111 "!
b1010011 #!
b1010111 $!
b1011011 %!
b1100011 &!
b1100111 '!
b1101011 (!
b1101111 )!
b1110011 *!
b1110111 +!
b1111011 ,!
b00 -!
b000 .!
b001 /!
b010 0!
b011 1!
b100 2!
b101 3!
b110 4!
b111 5!
b01 6!
b10 7!
b00000000000000000000000000000000 8!
b00000000000000000000000000000001 9!
b00000000000000000000000000000010 :!
b00000000000000000000000000000011 ;!
b00000000000000000000000000000100 <!
b00000000000000000000000000000101 =!
b00000000000000000000000000000110 >!
b00000000000000000000000000000111 ?!
b00000000000000000000000000001000 @!
b00000000000000000000000000001001 A!
b00000000000000000000000000001010 B!
b00000000000000000000000000001011 C!
b00000000000000000000000000001100 D!
b00000000000000000000000000001101 E!
b00000000000000000000000000001111 F!
b00000000000000000000000000010100 G!
b00000000000000000000000000010101 H!
b00000000000000000000000000010110 I!
b00000000000000000000000000010111 J!
b00000000000000000000000000011000 K!
b00000000000000000000000000000001 L!
b00000000000000000000000000000010 M!
b00000000000000000000000000000011 N!
b00000000000000000000000000000101 O!
b00000000000000000000000000000110 P!
b00000000000000000000000000000111 Q!
b00000000000000000000000000001001 R!
b00000000000000000000000000001010 S!
b00000000000000000000000000001011 T!
b00000000000000000000000000001100 U!
b00000000000000000000000000100000 V!
b00000000000000000000000001000000 W!
b00000000000000000000000010000000 X!
b00000000000000000000001000000000 Y!
b00000000000000000000010000000000 Z!
b00000000000000000000100000000000 [!
b00000000000000000001000000000000 \!
b00000000000000000010000000000000 ]!
b00000000000000000010000000100000 ^!
b00000000000000000011000000000000 _!
b00000000000000000011000000100000 `!
b0000000000000000000000000000000000000000000000000000000000000001 a!
b0000000000000000000000000000000000000000000000000000000000000010 c!
b0000000000000000000000000000000000000000000000000000000000100000 e!
b0000000000000000000000000000000000000000000000000000000100000000 g!
b0000000000000000000000000000000000000000000000000110000000000000 i!
b0000000000000000000000000000000000000000000000011000000000000000 k!
b0000000000000000000000000000000000000000000001000000000000000000 m!
b0000000000000000000000000000000000000000000010000000000000000000 o!
b0000000000000000000000000000000000000000000000000000000000010000 q!
b0000000000000000000000000000001100000000000000000000000000000000 s!
b0000000000000000000000000000000000000000000000000000000001000000 u!
b0000000000000000000000000000000000000000000000000000000010000000 w!
b0000000000000000000000000000000000000000000000000000001000000000 y!
b0000000000000000000000000000000000000000000000111111000000000000 {!
b0000000000000000000000000000000000000000000100000000000000000000 }!
b0000000000000000000000000000000000000000001000000000000000000000 !"
b0000000000000000000000000000000000000000010000000000000000000000 #"
b0000000000000000000000000000000000000000000000000000000000000100 %"
b0000000000000000000000000000000000000000000000000000000000001000 '"
b0000000000000000000000000000000000000000000000000000011000000000 )"
b0000000000000000000000000000000000000000000000000001100000000000 +"
b0000000000000000000000000000000000000000000000100000000000000000 -"
b0000000000000000000000000000000000000000000000000000000000110000 /"
b0100000000000000000000000000000000000000000000000000000000000000 1"
b1000000000000000000000000000000000000000000000000000000000000000 3"
b0000000 5"
b0100000 6"
#1000
b10000000000000000000000000000000 #
b10000000000000000000000000000100 (
b00000000000000000000100000000000 ^
b00000000000000000000000000100000 _
1d
#2000
0d
1e
#3000
b10000000000000000000000000000100 #
b11111111111111111111111000010100 $
1'
b10000000000000000000000000001000 (
b11100001010000110000000000010011 +
b11111111111111111111111000010100 N
b11111111111111111111111000010100 T
b11111111111111111111111000010100 U
b11100001010000110000000000010011 b
1d
#4000
0d
#5000
b10000000000000000000000000001000 #
b00000000000000000000000100000001 $
b10000000000000000000000000001100 (
b00010000000100111000000000010011 +
b00000000000000000000000100000001 N
b00000000000000000000000100000001 T
b00000000000000000000000100000001 U
b00010000000100111000000000010011 b
1d
#6000
0d
#7000
b10000000000000000000000000001100 #
b11111111111111111111111101111101 $
b10000000000000000000000000010000 (
b11110111110101000000000000010011 +
b11111111111111111111111101111101 N
b11111111111111111111111101111101 T
b11111111111111111111111101111101 U
b11110111110101000000000000010011 b
1d
#8000
0d
#9000
b10000000000000000000000000010000 #
b11111111111111111111110011011110 $
b10000000000000000000000000010100 (
b11001101111001001000000000010011 +
b11111111111111111111110011011110 N
b11111111111111111111110011011110 T
b11111111111111111111110011011110 U
b11001101111001001000000000010011 b
1d
#10000
0d
#11000
b10000000000000000000000000010100 #
b11111111111111111111110111111100 $
b10000000000000000000000000011000 (
b11011111110001010000000000010011 +
b11111111111111111111110111111100 N
b11111111111111111111110111111100 T
b11111111111111111111110111111100 U
b11011111110001010000000000010011 b
1d
#12000
0d
#13000
b10000000000000000000000000011000 #
b11111111111111111111111100100001 $
b10000000000000000000000000011100 (
b11110010000101011000000000010011 +
b11111111111111111111111100100001 N
b11111111111111111111111100100001 T
b11111111111111111111111100100001 U
b11110010000101011000000000010011 b
1d
#14000
0d
#15000
b10000000000000000000000000011100 #
b11111111111111111111110100100100 $
b10000000000000000000000000100000 (
b11010010010001100000000000010011 +
b11111111111111111111110100100100 N
b11111111111111111111110100100100 T
b11111111111111111111110100100100 U
b11010010010001100000000000010011 b
1d
#16000
0d
#17000
b10000000000000000000000000100000 #
b11111111111111111111111011010010 $
b10000000000000000000000000100100 (
b11101101001001101000000000010011 +
b11111111111111111111111011010010 N
b11111111111111111111111011010010 T
b11111111111111111111111011010010 U
b11101101001001101000000000010011 b
1d
#18000
0d
#19000
b10000000000000000000000000100100 #
b00000000000000000000001111100111 $
b10000000000000000000000000101000 (
b00111110011101110000000000010011 +
b00000000000000000000001111100111 N
b00000000000000000000001111100111 T
b00000000000000000000001111100111 U
b00111110011101110000000000010011 b
1d
#20000
0d
#21000
b10000000000000000000000000101000 #
b11111111111111111111110000100110 $
b10000000000000000000000000101100 (
b11000010011001111000000000010011 +
b11111111111111111111110000100110 N
b11111111111111111111110000100110 T
b11111111111111111111110000100110 U
b11000010011001111000000000010011 b
1d
#22000
0d
#23000
b10000000000000000000000000101100 #
b00000000000000000000000111000111 $
b10000000000000000000000000110000 (
b00011100011110000000000000010011 +
b00000000000000000000000111000111 N
b00000000000000000000000111000111 T
b00000000000000000000000111000111 U
b00011100011110000000000000010011 b
1d
#24000
0d
#25000
b10000000000000000000000000110000 #
b00000000000000000000001010001001 $
b10000000000000000000000000110100 (
b00101000100110001000000000010011 +
b00000000000000000000001010001001 N
b00000000000000000000001010001001 T
b00000000000000000000001010001001 U
b00101000100110001000000000010011 b
1d
#26000
0d
#27000
b10000000000000000000000000110100 #
b11111111111111111111110101110011 $
b10000000000000000000000000111000 (
b11010111001110010000000000010011 +
b11111111111111111111110101110011 N
b11111111111111111111110101110011 T
b11111111111111111111110101110011 U
b11010111001110010000000000010011 b
1d
#28000
0d
#29000
b10000000000000000000000000111000 #
b11111111111111111111111100101110 $
b10000000000000000000000000111100 (
b11110010111010011000000000010011 +
b11111111111111111111111100101110 N
b11111111111111111111111100101110 T
b11111111111111111111111100101110 U
b11110010111010011000000000010011 b
1d
#30000
0d
#31000
b10000000000000000000000000111100 #
b11111111111111111111111111100011 $
b10000000000000000000000001000000 (
b11111110001110100000000000010011 +
b11111111111111111111111111100011 N
b11111111111111111111111111100011 T
b11111111111111111111111111100011 U
b11111110001110100000000000010011 b
1d
#32000
0d
#33000
b10000000000000000000000001000000 #
b00000000000000000000000010101010 $
b10000000000000000000000001000100 (
b00001010101010101000000000010011 +
b00000000000000000000000010101010 N
b00000000000000000000000010101010 T
b00000000000000000000000010101010 U
b00001010101010101000000000010011 b
1d
#34000
0d
#35000
b10000000000000000000000001000100 #
b00000000000000000000001000010001 $
b10000000000000000000000001001000 (
b00100001000110110000000000010011 +
b00000000000000000000001000010001 N
b00000000000000000000001000010001 T
b00000000000000000000001000010001 U
b00100001000110110000000000010011 b
1d
#36000
0d
#37000
b10000000000000000000000001001000 #
b00000000000000000000001110101111 $
b10000000000000000000000001001100 (
b00111010111110111000000000010011 +
b00000000000000000000001110101111 N
b00000000000000000000001110101111 T
b00000000000000000000001110101111 U
b00111010111110111000000000010011 b
1d
#38000
0d
#39000
b10000000000000000000000001001100 #
b00000000000000000000001000111011 $
b10000000000000000000000001010000 (
b00100011101111000000000000010011 +
b00000000000000000000001000111011 N
b00000000000000000000001000111011 T
b00000000000000000000001000111011 U
b00100011101111000000000000010011 b
1d
#40000
0d
#41000
b10000000000000000000000001010000 #
b11111111111111111111111100010011 $
b10000000000000000000000001010100 (
b11110001001111001000000000010011 +
b11111111111111111111111100010011 N
b11111111111111111111111100010011 T
b11111111111111111111111100010011 U
b11110001001111001000000000010011 b
1d
#42000
0d
#43000
b10000000000000000000000001010100 #
b11111111111111111111110111101101 $
b10000000000000000000000001011000 (
b11011110110111010000000000010011 +
b11111111111111111111110111101101 N
b11111111111111111111110111101101 T
b11111111111111111111110111101101 U
b11011110110111010000000000010011 b
1d
#44000
0d
#45000
b10000000000000000000000001011000 #
b00000000000000000000001011110101 $
b10000000000000000000000001011100 (
b00101111010111011000000000010011 +
b00000000000000000000001011110101 N
b00000000000000000000001011110101 T
b00000000000000000000001011110101 U
b00101111010111011000000000010011 b
1d
#46000
0d
#47000
b10000000000000000000000001011100 #
b11111111111111111111111101001010 $
b10000000000000000000000001100000 (
b11110100101011100000000000010011 +
b11111111111111111111111101001010 N
b11111111111111111111111101001010 T
b11111111111111111111111101001010 U
b11110100101011100000000000010011 b
1d
#48000
0d
#49000
b10000000000000000000000001100000 #
b00000000000000000000001010011110 $
b10000000000000000000000001100100 (
b00101001111011101000000000010011 +
b00000000000000000000001010011110 N
b00000000000000000000001010011110 T
b00000000000000000000001010011110 U
b00101001111011101000000000010011 b
1d
#50000
0d
#51000
b10000000000000000000000001100100 #
b00000000000000000000000011000100 $
b10000000000000000000000001101000 (
b00001100010011110000000000010011 +
b00000000000000000000000011000100 N
b00000000000000000000000011000100 T
b00000000000000000000000011000100 U
b00001100010011110000000000010011 b
1d
#52000
0d
#53000
b10000000000000000000000001101000 #
b11111111111111111111111010001000 $
b10000000000000000000000001101100 (
b11101000100011111000000000010011 +
b11111111111111111111111010001000 N
b11111111111111111111111010001000 T
b11111111111111111111111010001000 U
b11101000100011111000000000010011 b
1d
#54000
0d
